%YAML 1.1
%TAG !u! tag:unity3d.com,2011:
--- !u!114 &11400000
MonoBehaviour:
  m_ObjectHideFlags: 0
  m_CorrespondingSourceObject: {fileID: 0}
  m_PrefabInstance: {fileID: 0}
  m_PrefabAsset: {fileID: 0}
  m_GameObject: {fileID: 0}
  m_Enabled: 1
  m_EditorHideFlags: 0
  m_Script: {fileID: 11500000, guid: 10dac9b054ca312438473f0d6bd74e9d, type: 3}
  m_Name: Mana Flask
  m_EditorClassIdentifier: 
  name: Mana Flask
  icon: {fileID: -1061600653231999548, guid: 8ebbc2464eae9ff4fafb07d4b32d49c2, type: 3}
  isDefaultItem: 0
  isStackable: 1
  maxStackSize: 0
  itemPrefab: {fileID: 4752187225927863284, guid: 11dce27e39efefa44b1afb4ce61c03eb, type: 3}
