%YAML 1.1
%TAG !u! tag:unity3d.com,2011:
--- !u!1 &4380363649800103548
GameObject:
  m_ObjectHideFlags: 0
  m_CorrespondingSourceObject: {fileID: 0}
  m_PrefabInstance: {fileID: 0}
  m_PrefabAsset: {fileID: 0}
  serializedVersion: 6
  m_Component:
  - component: {fileID: 4380363649800103546}
  - component: {fileID: 4380363649800103547}
  m_Layer: 0
  m_Name: MapGeneratorVoodo
  m_TagString: Untagged
  m_Icon: {fileID: 0}
  m_NavMeshLayer: 0
  m_StaticEditorFlags: 0
  m_IsActive: 1
--- !u!4 &4380363649800103546
Transform:
  m_ObjectHideFlags: 0
  m_CorrespondingSourceObject: {fileID: 0}
  m_PrefabInstance: {fileID: 0}
  m_PrefabAsset: {fileID: 0}
  m_GameObject: {fileID: 4380363649800103548}
  m_LocalRotation: {x: 0, y: 0, z: 0, w: 1}
  m_LocalPosition: {x: 9.96497, y: 10.811413, z: -16.924856}
  m_LocalScale: {x: 1, y: 1, z: 1}
  m_Children: []
  m_Father: {fileID: 0}
  m_RootOrder: 0
  m_LocalEulerAnglesHint: {x: 0, y: 0, z: 0}
--- !u!114 &4380363649800103547
MonoBehaviour:
  m_ObjectHideFlags: 0
  m_CorrespondingSourceObject: {fileID: 0}
  m_PrefabInstance: {fileID: 0}
  m_PrefabAsset: {fileID: 0}
  m_GameObject: {fileID: 4380363649800103548}
  m_Enabled: 1
  m_EditorHideFlags: 0
  m_Script: {fileID: 11500000, guid: 523fd1f77ceb2c54684b0102d2b19ef3, type: 3}
  m_Name: 
  m_EditorClassIdentifier: 
  prefabWater: {fileID: 5179594605645605203, guid: 341e7c219ca09794fbcb49a05e4a2ccc, type: 3}
  prefabGrass: {fileID: 6909827520154704919, guid: 8b390186510d9b844b44d0e17946c93a, type: 3}
  prefabRocks: {fileID: 483274121346232851, guid: 879e56b7b1eef474b9d0ce301899393f, type: 3}
  _tilemap: {fileID: 0}
  ruleTileWater: {fileID: 11400000, guid: 95a2e0c5c57ce314fa0c01b231513009, type: 2}
  ruleTileGrass: {fileID: 11400000, guid: 147c464c9c8e58940b280a7d0e13e745, type: 2}
  ruleTileRock: {fileID: 11400000, guid: 6efc957af9633c942a1419b8ed475a1c, type: 2}
  zoomLevel: 7
  xOffset: 0
  yOffset: 0
  chanceToSpawnOnTile: 100
  enemyPrefab: {fileID: 9133669296803839952, guid: bf76f2a06df51514ebc1049fd0320f88, type: 3}
  enemyParent: {fileID: 0}
